%YAML 1.1
%TAG !u! tag:unity3d.com,2011:
--- !u!64 &750944493
MeshCollider:
  m_ObjectHideFlags: 0
  m_CorrespondingSourceObject: {fileID: 0}
  m_PrefabInstance: {fileID: 0}
  m_PrefabAsset: {fileID: 0}
  m_GameObject: {fileID: 617209994452694982}
  m_Material: {fileID: 0}
  m_IsTrigger: 0
  m_Enabled: 1
  serializedVersion: 4
  m_Convex: 0
  m_CookingOptions: 30
  m_Mesh: {fileID: -4085542598650377539, guid: ebabb677aae2f4a9ca8a1efec3d4f1e8, type: 3}
--- !u!1001 &311219968729500311
PrefabInstance:
  m_ObjectHideFlags: 0
  serializedVersion: 2
  m_Modification:
    m_TransformParent: {fileID: 0}
    m_Modifications:
    - target: {fileID: -8679921383154817045, guid: ebabb677aae2f4a9ca8a1efec3d4f1e8, type: 3}
      propertyPath: m_RootOrder
      value: 0
      objectReference: {fileID: 0}
    - target: {fileID: -8679921383154817045, guid: ebabb677aae2f4a9ca8a1efec3d4f1e8, type: 3}
      propertyPath: m_LocalScale.x
      value: 97.42979
      objectReference: {fileID: 0}
    - target: {fileID: -8679921383154817045, guid: ebabb677aae2f4a9ca8a1efec3d4f1e8, type: 3}
      propertyPath: m_LocalScale.y
      value: 98.87112
      objectReference: {fileID: 0}
    - target: {fileID: -8679921383154817045, guid: ebabb677aae2f4a9ca8a1efec3d4f1e8, type: 3}
      propertyPath: m_LocalScale.z
      value: 99.41496
      objectReference: {fileID: 0}
    - target: {fileID: -8679921383154817045, guid: ebabb677aae2f4a9ca8a1efec3d4f1e8, type: 3}
      propertyPath: m_LocalPosition.x
      value: 12.7185
      objectReference: {fileID: 0}
    - target: {fileID: -8679921383154817045, guid: ebabb677aae2f4a9ca8a1efec3d4f1e8, type: 3}
      propertyPath: m_LocalPosition.y
      value: 2.1184
      objectReference: {fileID: 0}
    - target: {fileID: -8679921383154817045, guid: ebabb677aae2f4a9ca8a1efec3d4f1e8, type: 3}
      propertyPath: m_LocalPosition.z
      value: 8.8535
      objectReference: {fileID: 0}
    - target: {fileID: -8679921383154817045, guid: ebabb677aae2f4a9ca8a1efec3d4f1e8, type: 3}
      propertyPath: m_LocalRotation.w
      value: 0.7071067
      objectReference: {fileID: 0}
    - target: {fileID: -8679921383154817045, guid: ebabb677aae2f4a9ca8a1efec3d4f1e8, type: 3}
      propertyPath: m_LocalRotation.x
      value: -0.7071068
      objectReference: {fileID: 0}
    - target: {fileID: -8679921383154817045, guid: ebabb677aae2f4a9ca8a1efec3d4f1e8, type: 3}
      propertyPath: m_LocalRotation.y
      value: 0
      objectReference: {fileID: 0}
    - target: {fileID: -8679921383154817045, guid: ebabb677aae2f4a9ca8a1efec3d4f1e8, type: 3}
      propertyPath: m_LocalRotation.z
      value: -0
      objectReference: {fileID: 0}
    - target: {fileID: -8679921383154817045, guid: ebabb677aae2f4a9ca8a1efec3d4f1e8, type: 3}
      propertyPath: m_LocalEulerAnglesHint.x
      value: 0
      objectReference: {fileID: 0}
    - target: {fileID: -8679921383154817045, guid: ebabb677aae2f4a9ca8a1efec3d4f1e8, type: 3}
      propertyPath: m_LocalEulerAnglesHint.y
      value: 0
      objectReference: {fileID: 0}
    - target: {fileID: -8679921383154817045, guid: ebabb677aae2f4a9ca8a1efec3d4f1e8, type: 3}
      propertyPath: m_LocalEulerAnglesHint.z
      value: 0
      objectReference: {fileID: 0}
    - target: {fileID: -7511558181221131132, guid: ebabb677aae2f4a9ca8a1efec3d4f1e8, type: 3}
      propertyPath: m_Enabled
      value: 1
      objectReference: {fileID: 0}
    - target: {fileID: -7511558181221131132, guid: ebabb677aae2f4a9ca8a1efec3d4f1e8, type: 3}
      propertyPath: m_Materials.Array.size
      value: 5
      objectReference: {fileID: 0}
    - target: {fileID: -7511558181221131132, guid: ebabb677aae2f4a9ca8a1efec3d4f1e8, type: 3}
      propertyPath: m_Materials.Array.data[5]
      value: 
      objectReference: {fileID: 0}
    - target: {fileID: 919132149155446097, guid: ebabb677aae2f4a9ca8a1efec3d4f1e8, type: 3}
      propertyPath: m_Name
      value: house
      objectReference: {fileID: 0}
    m_RemovedComponents: []
  m_SourcePrefab: {fileID: 100100000, guid: ebabb677aae2f4a9ca8a1efec3d4f1e8, type: 3}
--- !u!1 &617209994452694982 stripped
GameObject:
  m_CorrespondingSourceObject: {fileID: 919132149155446097, guid: ebabb677aae2f4a9ca8a1efec3d4f1e8, type: 3}
  m_PrefabInstance: {fileID: 311219968729500311}
  m_PrefabAsset: {fileID: 0}
